{
    "/api": {
        "target": {
        "host": "localhost",
        "protocol": "http:",
        "port": 8080
        },
        "secure": false,
        "changeOrigin": true,
        "logLevel": "info"
    }
}  